"Resource/UI/ScoreBoard.res"
{
	"scores"
	{
		"ControlName"		"CClientScoreBoardDialog"
		"fieldName"		"scores"
		"xpos"		"c-260"
		"ypos"		"42"
		"wide"		"520"
		"tall"		"1"
		"autoResize"		"0"
		"pinCorner"		"1"
		"visible"		"0"
		"enabled"		"1"
		"tabPosition"		"0"
	}
	"ServerName"
	{
		"ControlName"		"Label"
		"fieldName"		"ServerName"
		"xpos"		"3"
		"ypos"		"2"
		"wide"		"250"
		"tall"		"32"
		"autoResize"	"0"
		"pinCorner"		"0"
		"visible"		"1"
		"enabled"		"1"
		"labelText"		""
		"textAlignment"		"north-west"
		"dulltext"		"0"
		"brighttext"	"1"
	}
	"PlayerList"
	{
		"ControlName"		"SectionedListPanel"
		"fieldName"		"PlayerList"
		"xpos"		"0"
		"ypos"		"0"
		"wide"		"520"
		"tall"		"360"
		"autoResize"		"0"
		"pinCorner"		"0"
		"visible"		"1"
		"enabled"		"1"
		"tabPosition"		"0"
		"autoresize"	"3"
		"linespacing"	"16"
	}
}
