"UnlitTwoTexture"
{
	"$basetexture"   "console/background01_widescreen"
	"$vertexcolor"   "1"
	"$vertexalpha"   "1"
	"$ignorez"       "1"
	"$no_fullbright" "1"
	"$nolod"         "1"
	"$texture2"      "console/background01_effect_1610"

	"Proxies"
	{
		"AnimatedTexture"
		{
			"animatedtexturevar" 		"$basetexture"
			"animatedtextureframenumvar" 	"$frame"
			"animatedtextureframerate" 	10
		}

		"TextureScroll"
		{
			"texturescrollvar"     		"$texture2transform"
			"texturescrollrate"		.02
			"texturescrollangle"		180
		}
	}
}

